{"event":"details","time":1568751414,"u":"45","run":"37.86","mem":"179.29","data":"----- Initiating master send function for BackupBuddy v8.4.18.0."}
{"event":"details","time":1568751414,"u":"45","run":"37.86","mem":"179.29","data":"Basename file: `crg82a49owupuaozg-1-100x100.jpg`. Post-send deletion: "}
{"event":"details","time":1568751414,"u":"45","run":"37.86","mem":"179.29","data":"Created fileoptions lock file `send-live_f68faf31e98e3e3148a162763967cd9a-q1oqm8.txt.lock` with ID: 5d81a1a66e8c23.57016656."}
{"event":"details","time":1568751414,"u":"45","run":"37.86","mem":"179.29","data":"Fileoptions load using 0 MB of memory."}
{"event":"details","time":1568751414,"u":"45","run":"37.87","mem":"179.30","data":"Fileoptions `send-live_f68faf31e98e3e3148a162763967cd9a-q1oqm8.txt` saved. 2820 bytes written."}
{"event":"details","time":1568751414,"u":"45","run":"37.87","mem":"179.29","data":"Initializing destination."}
{"event":"details","time":1568751414,"u":"45","run":"37.87","mem":"179.29","data":"Loading destination init file `\/home\/chris362\/public_html\/wp-content\/plugins\/backupbuddy\/destinations\/live\/init.php`."}
{"event":"details","time":1568751414,"u":"45","run":"37.87","mem":"179.29","data":"Destination init loaded."}
{"event":"details","time":1568751414,"u":"45","run":"37.87","mem":"179.29","data":"Initialized `live` destination."}
{"event":"details","time":1568751414,"u":"45","run":"37.87","mem":"179.29","data":"Applying destination-specific defaults."}
{"event":"details","time":1568751414,"u":"45","run":"37.87","mem":"179.29","data":"Applying global destination defaults."}
{"event":"details","time":1568751414,"u":"45","run":"37.87","mem":"179.29","data":"Calling destination-specific send method `pb_backupbuddy_destination_live::send`."}
{"event":"details","time":1568751414,"u":"45","run":"37.87","mem":"179.30","data":"Starting S32 send()."}
{"event":"details","time":1568751414,"u":"45","run":"37.87","mem":"179.31","data":"Using bundled cacert.pem file based on destination settings."}
{"event":"details","time":1568751414,"u":"45","run":"37.87","mem":"179.34","data":"Guzzle client cainfo: `\/home\/chris362\/public_html\/wp-content\/plugins\/backupbuddy\/destinations\/_s3lib2\/Guzzle\/Http\/Resources\/cacert.pem`. capath: `n\/a`."}
{"event":"details","time":1568751414,"u":"45","run":"37.87","mem":"179.36","data":"File size of `4 KB`."}
{"event":"details","time":1568751414,"u":"45","run":"37.87","mem":"179.36","data":"Initiating multipart transfer."}
{"event":"details","time":1568751414,"u":"62","run":"38.04","mem":"179.39","data":"Initiated multipart upload with ID `2~s6qwq5unesheYfvmzp9n-zS5IHL8V8k`."}
{"event":"details","time":1568751414,"u":"62","run":"38.04","mem":"179.39","data":"Multipart initiated; passing over to send first chunk this run. Burst size: `10 MB`."}
{"event":"details","time":1568751414,"u":"62","run":"38.04","mem":"179.39","data":"Max time not set in settings so detecting server max PHP runtime."}
{"event":"details","time":1568751414,"u":"62","run":"38.04","mem":"179.39","data":"Using max runtime: `45`."}
{"event":"details","time":1568751414,"u":"62","run":"38.04","mem":"179.39","data":"About to read in part contents of part `1` of `1` parts of file `\/home\/chris362\/public_html\/wp-content\/uploads\/2018\/04\/crg82a49owupuaozg-1-100x100.jpg` to remote location `wp-content\/uploads\/2018\/04\/crg82a49owupuaozg-1-100x100.jpg` with multipart ID `2~s6qwq5unesheYfvmzp9n-zS5IHL8V8k`."}
{"event":"details","time":1568751414,"u":"63","run":"38.04","mem":"179.40","data":"Beginning upload."}
{"event":"details","time":1568751414,"u":"91","run":"38.32","mem":"179.41","data":"Success sending chunk. Enable full logging for upload result details."}
{"event":"details","time":1568751414,"u":"91","run":"38.32","mem":"179.41","data":"Uploaded size this burst: `4 KB`, Start time: `1568776614.6296`. Finish time: `1568776614.9123`. Elapsed: `0.28263902664185`. Speed: `16 KB`\/sec."}
{"event":"details","time":1568751414,"u":"91","run":"38.32","mem":"179.41","data":"About to load fileoptions data."}
{"event":"details","time":1568751414,"u":"91","run":"38.32","mem":"179.41","data":"Fileoptions instance #10."}
{"event":"details","time":1568751414,"u":"91","run":"38.32","mem":"179.42","data":"Created fileoptions lock file `send-live_f68faf31e98e3e3148a162763967cd9a-q1oqm8.txt.lock` with ID: 5d81a1a6ded457.82935655."}
{"event":"details","time":1568751414,"u":"91","run":"38.32","mem":"179.42","data":"Fileoptions load using 0.01 MB of memory."}
{"event":"details","time":1568751414,"u":"91","run":"38.32","mem":"179.42","data":"Fileoptions data loaded."}
{"event":"details","time":1568751414,"u":"91","run":"38.32","mem":"179.42","data":"Getting etags and notifying of multipart upload completion."}
{"event":"details","time":1568751415,"u":"14","run":"38.56","mem":"179.44","data":"Server notified of multipart completion."}
{"event":"details","time":1568751415,"u":"14","run":"38.56","mem":"179.44","data":"No more parts left for this multipart upload. Clearing multipart instance variables."}
{"event":"details","time":1568751415,"u":"14","run":"38.56","mem":"179.44","data":"Upload speed average of all chunks: `16 KB`."}
{"event":"details","time":1568751415,"u":"14","run":"38.56","mem":"179.45","data":"Fileoptions `send-live_f68faf31e98e3e3148a162763967cd9a-q1oqm8.txt` saved. 3088 bytes written."}
{"event":"details","time":1568751415,"u":"14","run":"38.56","mem":"179.40","data":"Saving catalog that file `\/wp-content\/uploads\/2018\/04\/crg82a49owupuaozg-1-100x100.jpg` has been backed up."}
{"event":"details","time":1568751415,"u":"57","run":"38.98","mem":"179.30","data":"Fileoptions `catalog-u8r9rcxub343zmq.txt` saved (Live mode). 15518759 bytes written."}
{"event":"details","time":1568751415,"u":"58","run":"38.99","mem":"179.31","data":"Fileoptions `state-u8r9rcxub343zmq.txt` saved. 4152 bytes written."}
{"event":"details","time":1568751415,"u":"58","run":"39.00","mem":"179.29","data":"Completed send function. Success."}
{"event":"details","time":1568751415,"u":"58","run":"39.00","mem":"179.29","data":"About to load fileoptions data."}
{"event":"details","time":1568751415,"u":"58","run":"39.00","mem":"179.29","data":"Fileoptions instance #16."}
{"event":"details","time":1568751415,"u":"58","run":"39.00","mem":"179.29","data":"Created fileoptions lock file `send-live_f68faf31e98e3e3148a162763967cd9a-q1oqm8.txt.lock` with ID: 5d81a1a78e9713.27810143."}
{"event":"details","time":1568751415,"u":"58","run":"39.00","mem":"179.30","data":"Fileoptions load using 0.01 MB of memory."}
{"event":"details","time":1568751415,"u":"58","run":"39.00","mem":"179.30","data":"Fileoptions data loaded."}
{"event":"details","time":1568751415,"u":"58","run":"39.00","mem":"179.30","data":"Post-send deletion not enabled."}
{"event":"details","time":1568751415,"u":"58","run":"39.00","mem":"179.30","data":"Ending send() function pass."}
