{"event":"details","time":1568672996,"u":"23","run":"30.09","mem":"112.15","data":"----- Initiating master send function for BackupBuddy v8.4.18.0."}
{"event":"details","time":1568672996,"u":"23","run":"30.09","mem":"112.15","data":"Basename file: `cn0p5h0dpl4380nzg-940x400.jpg`. Post-send deletion: "}
{"event":"details","time":1568672996,"u":"23","run":"30.09","mem":"112.15","data":"Created fileoptions lock file `send-live_d81400b0ca83038e9102ffc01b1ac71a-hgmtyt.txt.lock` with ID: 5d806f543a7630.13958608."}
{"event":"details","time":1568672996,"u":"23","run":"30.09","mem":"112.15","data":"Fileoptions load using 0 MB of memory."}
{"event":"details","time":1568672996,"u":"23","run":"30.09","mem":"112.16","data":"Fileoptions `send-live_d81400b0ca83038e9102ffc01b1ac71a-hgmtyt.txt` saved. 2832 bytes written."}
{"event":"details","time":1568672996,"u":"24","run":"30.09","mem":"112.15","data":"Initializing destination."}
{"event":"details","time":1568672996,"u":"24","run":"30.09","mem":"112.15","data":"Loading destination init file `\/home\/chris362\/public_html\/wp-content\/plugins\/backupbuddy\/destinations\/live\/init.php`."}
{"event":"details","time":1568672996,"u":"24","run":"30.09","mem":"112.15","data":"Destination init loaded."}
{"event":"details","time":1568672996,"u":"24","run":"30.09","mem":"112.15","data":"Initialized `live` destination."}
{"event":"details","time":1568672996,"u":"24","run":"30.09","mem":"112.15","data":"Applying destination-specific defaults."}
{"event":"details","time":1568672996,"u":"24","run":"30.09","mem":"112.15","data":"Applying global destination defaults."}
{"event":"details","time":1568672996,"u":"24","run":"30.09","mem":"112.15","data":"Calling destination-specific send method `pb_backupbuddy_destination_live::send`."}
{"event":"details","time":1568672996,"u":"24","run":"30.09","mem":"112.16","data":"Starting S32 send()."}
{"event":"details","time":1568672996,"u":"24","run":"30.09","mem":"112.16","data":"File size of `108 KB`."}
{"event":"details","time":1568672996,"u":"24","run":"30.09","mem":"112.16","data":"Initiating multipart transfer."}
{"event":"details","time":1568672996,"u":"33","run":"30.19","mem":"112.17","data":"Initiated multipart upload with ID `2~xawUal5MK2w2yBP5gmLo_HJ59urzyLM`."}
{"event":"details","time":1568672996,"u":"33","run":"30.19","mem":"112.17","data":"Multipart initiated; passing over to send first chunk this run. Burst size: `10 MB`."}
{"event":"details","time":1568672996,"u":"33","run":"30.19","mem":"112.17","data":"Max time not set in settings so detecting server max PHP runtime."}
{"event":"details","time":1568672996,"u":"33","run":"30.19","mem":"112.17","data":"Using max runtime: `45`."}
{"event":"details","time":1568672996,"u":"33","run":"30.19","mem":"112.17","data":"About to read in part contents of part `1` of `1` parts of file `\/home\/chris362\/public_html\/wp-content\/uploads\/2018\/04\/cn0p5h0dpl4380nzg-940x400.jpg` to remote location `wp-content\/uploads\/2018\/04\/cn0p5h0dpl4380nzg-940x400.jpg` with multipart ID `2~xawUal5MK2w2yBP5gmLo_HJ59urzyLM`."}
{"event":"details","time":1568672996,"u":"34","run":"30.19","mem":"112.28","data":"Beginning upload."}
{"event":"details","time":1568672996,"u":"54","run":"30.39","mem":"112.28","data":"Success sending chunk. Enable full logging for upload result details."}
{"event":"details","time":1568672996,"u":"54","run":"30.39","mem":"112.28","data":"Uploaded size this burst: `108 KB`, Start time: `1568698196.3385`. Finish time: `1568698196.5433`. Elapsed: `0.20483803749084`. Speed: `529 KB`\/sec."}
{"event":"details","time":1568672996,"u":"54","run":"30.39","mem":"112.28","data":"About to load fileoptions data."}
{"event":"details","time":1568672996,"u":"54","run":"30.39","mem":"112.28","data":"Fileoptions instance #10."}
{"event":"details","time":1568672996,"u":"54","run":"30.39","mem":"112.29","data":"Created fileoptions lock file `send-live_d81400b0ca83038e9102ffc01b1ac71a-hgmtyt.txt.lock` with ID: 5d806f5484bec1.16652570."}
{"event":"details","time":1568672996,"u":"54","run":"30.39","mem":"112.29","data":"Fileoptions load using 0.01 MB of memory."}
{"event":"details","time":1568672996,"u":"54","run":"30.39","mem":"112.29","data":"Fileoptions data loaded."}
{"event":"details","time":1568672996,"u":"54","run":"30.39","mem":"112.29","data":"Getting etags and notifying of multipart upload completion."}
{"event":"details","time":1568672996,"u":"63","run":"30.49","mem":"112.29","data":"Server notified of multipart completion."}
{"event":"details","time":1568672996,"u":"63","run":"30.49","mem":"112.29","data":"No more parts left for this multipart upload. Clearing multipart instance variables."}
{"event":"details","time":1568672996,"u":"63","run":"30.49","mem":"112.29","data":"Upload speed average of all chunks: `529 KB`."}
{"event":"details","time":1568672996,"u":"64","run":"30.49","mem":"112.30","data":"Fileoptions `send-live_d81400b0ca83038e9102ffc01b1ac71a-hgmtyt.txt` saved. 3096 bytes written."}
{"event":"details","time":1568672996,"u":"64","run":"30.49","mem":"112.16","data":"Saving catalog that file `\/wp-content\/uploads\/2018\/04\/cn0p5h0dpl4380nzg-940x400.jpg` has been backed up."}
{"event":"details","time":1568672996,"u":"94","run":"30.79","mem":"112.16","data":"Fileoptions `catalog-u8r9rcxub343zmq.txt` saved (Live mode). 15518741 bytes written."}
{"event":"details","time":1568672996,"u":"95","run":"30.80","mem":"112.17","data":"Fileoptions `state-u8r9rcxub343zmq.txt` saved. 4156 bytes written."}
{"event":"details","time":1568672996,"u":"95","run":"30.80","mem":"112.15","data":"Completed send function. Success."}
{"event":"details","time":1568672996,"u":"95","run":"30.80","mem":"112.15","data":"About to load fileoptions data."}
{"event":"details","time":1568672996,"u":"95","run":"30.80","mem":"112.15","data":"Fileoptions instance #16."}
{"event":"details","time":1568672996,"u":"95","run":"30.80","mem":"112.15","data":"Created fileoptions lock file `send-live_d81400b0ca83038e9102ffc01b1ac71a-hgmtyt.txt.lock` with ID: 5d806f54e9c918.37665982."}
{"event":"details","time":1568672996,"u":"95","run":"30.80","mem":"112.16","data":"Fileoptions load using 0.01 MB of memory."}
{"event":"details","time":1568672996,"u":"95","run":"30.81","mem":"112.16","data":"Fileoptions data loaded."}
{"event":"details","time":1568672996,"u":"95","run":"30.81","mem":"112.16","data":"Post-send deletion not enabled."}
{"event":"details","time":1568672996,"u":"95","run":"30.81","mem":"112.16","data":"Ending send() function pass."}
