{"event":"details","time":1568543238,"u":"72","run":"29.79","mem":"111.93","data":"----- Initiating master send function for BackupBuddy v8.4.18.0."}
{"event":"details","time":1568543238,"u":"72","run":"29.79","mem":"111.93","data":"Basename file: `bxeerpb16rc6lc1zg-1-700x933.jpg`. Post-send deletion: "}
{"event":"details","time":1568543238,"u":"72","run":"29.79","mem":"111.93","data":"Created fileoptions lock file `send-live_9ec8550a0650d606b850bf6dd2b4aefc-nbiz8d.txt.lock` with ID: 5d7e7476b183b8.04525139."}
{"event":"details","time":1568543238,"u":"72","run":"29.79","mem":"111.93","data":"Fileoptions load using 0 MB of memory."}
{"event":"details","time":1568543238,"u":"72","run":"29.79","mem":"111.94","data":"Fileoptions `send-live_9ec8550a0650d606b850bf6dd2b4aefc-nbiz8d.txt` saved. 2824 bytes written."}
{"event":"details","time":1568543238,"u":"72","run":"29.79","mem":"111.93","data":"Initializing destination."}
{"event":"details","time":1568543238,"u":"72","run":"29.79","mem":"111.93","data":"Loading destination init file `\/home\/chris362\/public_html\/wp-content\/plugins\/backupbuddy\/destinations\/live\/init.php`."}
{"event":"details","time":1568543238,"u":"72","run":"29.79","mem":"111.93","data":"Destination init loaded."}
{"event":"details","time":1568543238,"u":"72","run":"29.79","mem":"111.93","data":"Initialized `live` destination."}
{"event":"details","time":1568543238,"u":"72","run":"29.79","mem":"111.93","data":"Applying destination-specific defaults."}
{"event":"details","time":1568543238,"u":"72","run":"29.79","mem":"111.93","data":"Applying global destination defaults."}
{"event":"details","time":1568543238,"u":"72","run":"29.79","mem":"111.93","data":"Calling destination-specific send method `pb_backupbuddy_destination_live::send`."}
{"event":"details","time":1568543238,"u":"72","run":"29.79","mem":"111.94","data":"Starting S32 send()."}
{"event":"details","time":1568543238,"u":"73","run":"29.80","mem":"111.95","data":"File size of `191 KB`."}
{"event":"details","time":1568543238,"u":"73","run":"29.80","mem":"111.95","data":"Initiating multipart transfer."}
{"event":"details","time":1568543239,"u":"25","run":"30.32","mem":"111.95","data":"Initiated multipart upload with ID `2~pwnccAdjmilcq-QJZ-f7jXaWN7-19oe`."}
{"event":"details","time":1568543239,"u":"25","run":"30.32","mem":"111.96","data":"Multipart initiated; passing over to send first chunk this run. Burst size: `10 MB`."}
{"event":"details","time":1568543239,"u":"25","run":"30.32","mem":"111.95","data":"Max time not set in settings so detecting server max PHP runtime."}
{"event":"details","time":1568543239,"u":"25","run":"30.32","mem":"111.95","data":"Using max runtime: `45`."}
{"event":"details","time":1568543239,"u":"25","run":"30.32","mem":"111.95","data":"About to read in part contents of part `1` of `1` parts of file `\/home\/chris362\/public_html\/wp-content\/uploads\/2018\/04\/bxeerpb16rc6lc1zg-1-700x933.jpg` to remote location `wp-content\/uploads\/2018\/04\/bxeerpb16rc6lc1zg-1-700x933.jpg` with multipart ID `2~pwnccAdjmilcq-QJZ-f7jXaWN7-19oe`."}
{"event":"details","time":1568543239,"u":"25","run":"30.32","mem":"112.14","data":"Beginning upload."}
{"event":"details","time":1568543239,"u":"43","run":"30.50","mem":"112.14","data":"Success sending chunk. Enable full logging for upload result details."}
{"event":"details","time":1568543239,"u":"43","run":"30.50","mem":"112.14","data":"Uploaded size this burst: `191 KB`, Start time: `1568568439.2562`. Finish time: `1568568439.4379`. Elapsed: `0.18176007270813`. Speed: `1.02 MB`\/sec."}
{"event":"details","time":1568543239,"u":"43","run":"30.50","mem":"112.14","data":"About to load fileoptions data."}
{"event":"details","time":1568543239,"u":"43","run":"30.50","mem":"112.14","data":"Fileoptions instance #10."}
{"event":"details","time":1568543239,"u":"43","run":"30.50","mem":"112.15","data":"Created fileoptions lock file `send-live_9ec8550a0650d606b850bf6dd2b4aefc-nbiz8d.txt.lock` with ID: 5d7e74776aff02.47167526."}
{"event":"details","time":1568543239,"u":"43","run":"30.50","mem":"112.15","data":"Fileoptions load using 0.01 MB of memory."}
{"event":"details","time":1568543239,"u":"43","run":"30.50","mem":"112.15","data":"Fileoptions data loaded."}
{"event":"details","time":1568543239,"u":"43","run":"30.50","mem":"112.15","data":"Getting etags and notifying of multipart upload completion."}
{"event":"details","time":1568543239,"u":"58","run":"30.65","mem":"112.15","data":"Server notified of multipart completion."}
{"event":"details","time":1568543239,"u":"58","run":"30.65","mem":"112.15","data":"No more parts left for this multipart upload. Clearing multipart instance variables."}
{"event":"details","time":1568543239,"u":"58","run":"30.65","mem":"112.15","data":"Upload speed average of all chunks: `1.02 MB`."}
{"event":"details","time":1568543239,"u":"58","run":"30.65","mem":"112.16","data":"Fileoptions `send-live_9ec8550a0650d606b850bf6dd2b4aefc-nbiz8d.txt` saved. 3088 bytes written."}
{"event":"details","time":1568543239,"u":"58","run":"30.65","mem":"111.94","data":"Saving catalog that file `\/wp-content\/uploads\/2018\/04\/bxeerpb16rc6lc1zg-1-700x933.jpg` has been backed up."}
{"event":"details","time":1568543239,"u":"89","run":"30.96","mem":"111.94","data":"Fileoptions `catalog-u8r9rcxub343zmq.txt` saved (Live mode). 15516275 bytes written."}
{"event":"details","time":1568543239,"u":"91","run":"30.97","mem":"111.95","data":"Fileoptions `state-u8r9rcxub343zmq.txt` saved. 4156 bytes written."}
{"event":"details","time":1568543239,"u":"91","run":"30.97","mem":"111.93","data":"Completed send function. Success."}
{"event":"details","time":1568543239,"u":"91","run":"30.97","mem":"111.93","data":"About to load fileoptions data."}
{"event":"details","time":1568543239,"u":"91","run":"30.97","mem":"111.93","data":"Fileoptions instance #16."}
{"event":"details","time":1568543239,"u":"91","run":"30.97","mem":"111.93","data":"Created fileoptions lock file `send-live_9ec8550a0650d606b850bf6dd2b4aefc-nbiz8d.txt.lock` with ID: 5d7e7477dee892.20229702."}
{"event":"details","time":1568543239,"u":"91","run":"30.97","mem":"111.94","data":"Fileoptions load using 0.01 MB of memory."}
{"event":"details","time":1568543239,"u":"91","run":"30.97","mem":"111.94","data":"Fileoptions data loaded."}
{"event":"details","time":1568543239,"u":"91","run":"30.97","mem":"111.94","data":"Post-send deletion not enabled."}
{"event":"details","time":1568543239,"u":"91","run":"30.97","mem":"111.94","data":"Ending send() function pass."}
