{"event":"details","time":1568751410,"u":"13","run":"33.55","mem":"106.37","data":"----- Initiating master send function for BackupBuddy v8.4.18.0."}
{"event":"details","time":1568751410,"u":"13","run":"33.55","mem":"106.37","data":"Basename file: `cn0p5h0dpl4380nzg.jpg`. Post-send deletion: "}
{"event":"details","time":1568751410,"u":"13","run":"33.55","mem":"106.37","data":"Created fileoptions lock file `send-live_73f0a4773404b8d2a8a841d476a5c162-v5e890.txt.lock` with ID: 5d81a1a2220a65.52600899."}
{"event":"details","time":1568751410,"u":"13","run":"33.55","mem":"106.37","data":"Fileoptions load using 0 MB of memory."}
{"event":"details","time":1568751410,"u":"13","run":"33.55","mem":"106.37","data":"Fileoptions `send-live_73f0a4773404b8d2a8a841d476a5c162-v5e890.txt` saved. 2832 bytes written."}
{"event":"details","time":1568751410,"u":"14","run":"33.55","mem":"106.37","data":"Initializing destination."}
{"event":"details","time":1568751410,"u":"14","run":"33.55","mem":"106.37","data":"Loading destination init file `\/home\/chris362\/public_html\/wp-content\/plugins\/backupbuddy\/destinations\/live\/init.php`."}
{"event":"details","time":1568751410,"u":"14","run":"33.55","mem":"106.37","data":"Destination init loaded."}
{"event":"details","time":1568751410,"u":"14","run":"33.55","mem":"106.37","data":"Initialized `live` destination."}
{"event":"details","time":1568751410,"u":"14","run":"33.55","mem":"106.37","data":"Applying destination-specific defaults."}
{"event":"details","time":1568751410,"u":"14","run":"33.55","mem":"106.37","data":"Applying global destination defaults."}
{"event":"details","time":1568751410,"u":"14","run":"33.55","mem":"106.37","data":"Calling destination-specific send method `pb_backupbuddy_destination_live::send`."}
{"event":"details","time":1568751410,"u":"75","run":"34.16","mem":"106.41","data":"Caching Live action response data in transient `backupbuddy_live_action_response`."}
{"event":"details","time":1568751410,"u":"75","run":"34.17","mem":"106.42","data":"Starting S32 send()."}
{"event":"details","time":1568751410,"u":"76","run":"34.18","mem":"106.43","data":"Using bundled cacert.pem file based on destination settings."}
{"event":"details","time":1568751410,"u":"95","run":"34.36","mem":"106.70","data":"Guzzle client cainfo: `\/home\/chris362\/public_html\/wp-content\/plugins\/backupbuddy\/destinations\/_s3lib2\/Guzzle\/Http\/Resources\/cacert.pem`. capath: `n\/a`."}
{"event":"details","time":1568751411,"u":"05","run":"34.47","mem":"106.76","data":"File size of `3.17 MB`."}
{"event":"details","time":1568751411,"u":"05","run":"34.47","mem":"106.76","data":"Initiating multipart transfer."}
{"event":"details","time":1568751411,"u":"65","run":"35.06","mem":"107.19","data":"Initiated multipart upload with ID `2~a55U-2ZPTFyhHAPGcq0K3N-W4o0UPKh`."}
{"event":"details","time":1568751411,"u":"65","run":"35.06","mem":"107.20","data":"Multipart initiated; passing over to send first chunk this run. Burst size: `10 MB`."}
{"event":"details","time":1568751411,"u":"65","run":"35.06","mem":"107.19","data":"Max time not set in settings so detecting server max PHP runtime."}
{"event":"details","time":1568751411,"u":"65","run":"35.06","mem":"107.19","data":"Using max runtime: `45`."}
{"event":"details","time":1568751411,"u":"65","run":"35.06","mem":"107.19","data":"About to read in part contents of part `1` of `1` parts of file `\/home\/chris362\/public_html\/wp-content\/uploads\/2018\/04\/cn0p5h0dpl4380nzg.jpg` to remote location `wp-content\/uploads\/2018\/04\/cn0p5h0dpl4380nzg.jpg` with multipart ID `2~a55U-2ZPTFyhHAPGcq0K3N-W4o0UPKh`."}
{"event":"details","time":1568751411,"u":"67","run":"35.09","mem":"110.37","data":"Beginning upload."}
{"event":"details","time":1568751412,"u":"40","run":"35.81","mem":"110.39","data":"Success sending chunk. Enable full logging for upload result details."}
{"event":"details","time":1568751412,"u":"40","run":"35.81","mem":"110.39","data":"Uploaded size this burst: `3.17 MB`, Start time: `1568776611.6506`. Finish time: `1568776612.4017`. Elapsed: `0.75107192993164`. Speed: `4.21 MB`\/sec."}
{"event":"details","time":1568751412,"u":"40","run":"35.81","mem":"110.39","data":"About to load fileoptions data."}
{"event":"details","time":1568751412,"u":"40","run":"35.81","mem":"110.39","data":"Fileoptions instance #10."}
{"event":"details","time":1568751412,"u":"40","run":"35.81","mem":"110.39","data":"Created fileoptions lock file `send-live_73f0a4773404b8d2a8a841d476a5c162-v5e890.txt.lock` with ID: 5d81a1a4622751.01052526."}
{"event":"details","time":1568751412,"u":"40","run":"35.81","mem":"110.39","data":"Fileoptions load using 0.01 MB of memory."}
{"event":"details","time":1568751412,"u":"40","run":"35.81","mem":"110.39","data":"Fileoptions data loaded."}
{"event":"details","time":1568751412,"u":"40","run":"35.81","mem":"110.39","data":"Getting etags and notifying of multipart upload completion."}
{"event":"details","time":1568751412,"u":"63","run":"36.05","mem":"110.41","data":"Server notified of multipart completion."}
{"event":"details","time":1568751412,"u":"63","run":"36.05","mem":"110.41","data":"No more parts left for this multipart upload. Clearing multipart instance variables."}
{"event":"details","time":1568751412,"u":"63","run":"36.05","mem":"110.41","data":"Upload speed average of all chunks: `4.21 MB`."}
{"event":"details","time":1568751412,"u":"64","run":"36.05","mem":"110.42","data":"Fileoptions `send-live_73f0a4773404b8d2a8a841d476a5c162-v5e890.txt` saved. 3096 bytes written."}
{"event":"details","time":1568751412,"u":"64","run":"36.05","mem":"107.22","data":"Created fileoptions lock file `state-u8r9rcxub343zmq.txt.lock` with ID: 5d81a1a49c79c3.24624912."}
{"event":"details","time":1568751412,"u":"64","run":"36.05","mem":"107.23","data":"Fileoptions load using 0.01 MB of memory."}
{"event":"details","time":1568751412,"u":"64","run":"36.05","mem":"107.22","data":"Created fileoptions lock file `catalog-u8r9rcxub343zmq.txt.lock` with ID: 5d81a1a49ca609.67475597."}
{"event":"details","time":1568751413,"u":"19","run":"36.60","mem":"179.29","data":"Fileoptions load using 72.08 MB of memory."}
{"event":"details","time":1568751413,"u":"19","run":"36.60","mem":"179.29","data":"Saving catalog that file `\/wp-content\/uploads\/2018\/04\/cn0p5h0dpl4380nzg.jpg` has been backed up."}
{"event":"details","time":1568751413,"u":"19","run":"36.60","mem":"179.31","data":"Fileoptions `state-u8r9rcxub343zmq.txt` saved. 4144 bytes written."}
{"event":"details","time":1568751413,"u":"88","run":"37.29","mem":"179.30","data":"Fileoptions `catalog-u8r9rcxub343zmq.txt` saved (Live mode). 15518750 bytes written."}
{"event":"details","time":1568751413,"u":"90","run":"37.32","mem":"179.31","data":"Fileoptions `state-u8r9rcxub343zmq.txt` saved. 4152 bytes written."}
{"event":"details","time":1568751413,"u":"90","run":"37.32","mem":"179.29","data":"Completed send function. Success."}
{"event":"details","time":1568751413,"u":"90","run":"37.32","mem":"179.29","data":"About to load fileoptions data."}
{"event":"details","time":1568751413,"u":"90","run":"37.32","mem":"179.29","data":"Fileoptions instance #16."}
{"event":"details","time":1568751413,"u":"90","run":"37.32","mem":"179.29","data":"Created fileoptions lock file `send-live_73f0a4773404b8d2a8a841d476a5c162-v5e890.txt.lock` with ID: 5d81a1a5dd6657.00986297."}
{"event":"details","time":1568751413,"u":"90","run":"37.32","mem":"179.30","data":"Fileoptions load using 0.01 MB of memory."}
{"event":"details","time":1568751413,"u":"90","run":"37.32","mem":"179.30","data":"Fileoptions data loaded."}
{"event":"details","time":1568751413,"u":"90","run":"37.32","mem":"179.30","data":"Post-send deletion not enabled."}
{"event":"details","time":1568751413,"u":"90","run":"37.32","mem":"179.30","data":"Ending send() function pass."}
