{"event":"details","time":1568297343,"u":"64","run":"24.95","mem":"106.16","data":"----- Initiating master send function for BackupBuddy v8.4.18.0."}
{"event":"details","time":1568297343,"u":"64","run":"24.95","mem":"106.16","data":"Basename file: `b378tn5d74c2j1kzg-1.jpg`. Post-send deletion: "}
{"event":"details","time":1568297343,"u":"64","run":"24.95","mem":"106.17","data":"Created fileoptions lock file `send-live_bb5afa41bb3fb94df81878f37cc8e1b1-xbrzrp.txt.lock` with ID: 5d7ab3ef9e9244.86380749."}
{"event":"details","time":1568297343,"u":"64","run":"24.95","mem":"106.17","data":"Fileoptions load using 0 MB of memory."}
{"event":"details","time":1568297343,"u":"66","run":"24.97","mem":"106.17","data":"Fileoptions `send-live_bb5afa41bb3fb94df81878f37cc8e1b1-xbrzrp.txt` saved. 2832 bytes written."}
{"event":"details","time":1568297343,"u":"66","run":"24.97","mem":"106.16","data":"Initializing destination."}
{"event":"details","time":1568297343,"u":"66","run":"24.97","mem":"106.17","data":"Loading destination init file `\/home\/chris362\/public_html\/wp-content\/plugins\/backupbuddy\/destinations\/live\/init.php`."}
{"event":"details","time":1568297343,"u":"66","run":"24.97","mem":"106.17","data":"Destination init loaded."}
{"event":"details","time":1568297343,"u":"66","run":"24.97","mem":"106.17","data":"Initialized `live` destination."}
{"event":"details","time":1568297343,"u":"66","run":"24.97","mem":"106.17","data":"Applying destination-specific defaults."}
{"event":"details","time":1568297343,"u":"67","run":"24.97","mem":"106.17","data":"Applying global destination defaults."}
{"event":"details","time":1568297343,"u":"67","run":"24.97","mem":"106.17","data":"Calling destination-specific send method `pb_backupbuddy_destination_live::send`."}
{"event":"details","time":1568297343,"u":"67","run":"24.97","mem":"106.17","data":"Starting S32 send()."}
{"event":"details","time":1568297343,"u":"67","run":"24.97","mem":"106.18","data":"File size of `2.36 MB`."}
{"event":"details","time":1568297343,"u":"67","run":"24.97","mem":"106.18","data":"Initiating multipart transfer."}
{"event":"details","time":1568297343,"u":"75","run":"25.06","mem":"106.18","data":"Initiated multipart upload with ID `2~l0R9nRSy1BzfP1JfAadRn5Prf8ll1Qh`."}
{"event":"details","time":1568297343,"u":"75","run":"25.06","mem":"106.19","data":"Multipart initiated; passing over to send first chunk this run. Burst size: `10 MB`."}
{"event":"details","time":1568297343,"u":"75","run":"25.06","mem":"106.18","data":"Max time not set in settings so detecting server max PHP runtime."}
{"event":"details","time":1568297343,"u":"75","run":"25.06","mem":"106.18","data":"Using max runtime: `45`."}
{"event":"details","time":1568297343,"u":"75","run":"25.06","mem":"106.18","data":"About to read in part contents of part `1` of `1` parts of file `\/home\/chris362\/public_html\/wp-content\/uploads\/2018\/04\/b378tn5d74c2j1kzg-1.jpg` to remote location `wp-content\/uploads\/2018\/04\/b378tn5d74c2j1kzg-1.jpg` with multipart ID `2~l0R9nRSy1BzfP1JfAadRn5Prf8ll1Qh`."}
{"event":"details","time":1568297343,"u":"76","run":"25.07","mem":"108.55","data":"Beginning upload."}
{"event":"details","time":1568297344,"u":"09","run":"25.40","mem":"108.55","data":"Success sending chunk. Enable full logging for upload result details."}
{"event":"details","time":1568297344,"u":"09","run":"25.40","mem":"108.55","data":"Uploaded size this burst: `2.36 MB`, Start time: `1568322543.759`. Finish time: `1568322544.0976`. Elapsed: `0.33852601051331`. Speed: `6.96 MB`\/sec."}
{"event":"details","time":1568297344,"u":"09","run":"25.40","mem":"108.55","data":"About to load fileoptions data."}
{"event":"details","time":1568297344,"u":"09","run":"25.40","mem":"108.55","data":"Fileoptions instance #10."}
{"event":"details","time":1568297344,"u":"09","run":"25.40","mem":"108.55","data":"Created fileoptions lock file `send-live_bb5afa41bb3fb94df81878f37cc8e1b1-xbrzrp.txt.lock` with ID: 5d7ab3f017ebe3.16151359."}
{"event":"details","time":1568297344,"u":"09","run":"25.40","mem":"108.56","data":"Fileoptions load using 0.01 MB of memory."}
{"event":"details","time":1568297344,"u":"09","run":"25.40","mem":"108.56","data":"Fileoptions data loaded."}
{"event":"details","time":1568297344,"u":"09","run":"25.40","mem":"108.56","data":"Getting etags and notifying of multipart upload completion."}
{"event":"details","time":1568297344,"u":"23","run":"25.53","mem":"108.56","data":"Server notified of multipart completion."}
{"event":"details","time":1568297344,"u":"23","run":"25.53","mem":"108.56","data":"No more parts left for this multipart upload. Clearing multipart instance variables."}
{"event":"details","time":1568297344,"u":"23","run":"25.53","mem":"108.56","data":"Upload speed average of all chunks: `6.96 MB`."}
{"event":"details","time":1568297344,"u":"23","run":"25.53","mem":"108.57","data":"Fileoptions `send-live_bb5afa41bb3fb94df81878f37cc8e1b1-xbrzrp.txt` saved. 3096 bytes written."}
{"event":"details","time":1568297344,"u":"23","run":"25.53","mem":"106.17","data":"Created fileoptions lock file `state-u8r9rcxub343zmq.txt.lock` with ID: 5d7ab3f038b580.34022673."}
{"event":"details","time":1568297344,"u":"23","run":"25.53","mem":"106.19","data":"Fileoptions load using 0.01 MB of memory."}
{"event":"details","time":1568297344,"u":"23","run":"25.53","mem":"106.18","data":"Created fileoptions lock file `catalog-u8r9rcxub343zmq.txt.lock` with ID: 5d7ab3f038df90.35598061."}
