{"event":"details","time":1567501650,"u":"64","run":"37.30","mem":"110.97","data":"----- Initiating master send function for BackupBuddy v8.4.18.0."}
{"event":"details","time":1567501650,"u":"64","run":"37.30","mem":"110.97","data":"Basename file: `7znlix32kovzz6zzg-768x1024.jpg`. Post-send deletion: "}
{"event":"details","time":1567501650,"u":"64","run":"37.30","mem":"110.98","data":"Created fileoptions lock file `send-live_0c074e33aac1fe8386d96acfb37769c1-dtc1ke.txt.lock` with ID: 5d6e8fc29c8631.83755395."}
{"event":"details","time":1567501650,"u":"64","run":"37.30","mem":"110.97","data":"Fileoptions load using 0 MB of memory."}
{"event":"details","time":1567501650,"u":"64","run":"37.31","mem":"110.98","data":"Fileoptions `send-live_0c074e33aac1fe8386d96acfb37769c1-dtc1ke.txt` saved. 2832 bytes written."}
{"event":"details","time":1567501650,"u":"64","run":"37.31","mem":"110.97","data":"Initializing destination."}
{"event":"details","time":1567501650,"u":"64","run":"37.31","mem":"110.97","data":"Loading destination init file `\/home\/chris362\/public_html\/wp-content\/plugins\/backupbuddy\/destinations\/live\/init.php`."}
{"event":"details","time":1567501650,"u":"64","run":"37.31","mem":"110.97","data":"Destination init loaded."}
{"event":"details","time":1567501650,"u":"64","run":"37.31","mem":"110.97","data":"Initialized `live` destination."}
{"event":"details","time":1567501650,"u":"64","run":"37.31","mem":"110.97","data":"Applying destination-specific defaults."}
{"event":"details","time":1567501650,"u":"64","run":"37.31","mem":"110.98","data":"Applying global destination defaults."}
{"event":"details","time":1567501650,"u":"64","run":"37.31","mem":"110.98","data":"Calling destination-specific send method `pb_backupbuddy_destination_live::send`."}
{"event":"details","time":1567501650,"u":"64","run":"37.31","mem":"110.98","data":"Starting S32 send()."}
{"event":"details","time":1567501650,"u":"64","run":"37.31","mem":"110.99","data":"File size of `166 KB`."}
{"event":"details","time":1567501650,"u":"64","run":"37.31","mem":"110.99","data":"Initiating multipart transfer."}
{"event":"details","time":1567501650,"u":"80","run":"37.47","mem":"110.99","data":"Initiated multipart upload with ID `2~uCuRlYL8eGOzEFrFlh7WPzyGpnIw-PX`."}
{"event":"details","time":1567501650,"u":"80","run":"37.47","mem":"111.00","data":"Multipart initiated; passing over to send first chunk this run. Burst size: `10 MB`."}
{"event":"details","time":1567501650,"u":"80","run":"37.47","mem":"110.99","data":"Max time not set in settings so detecting server max PHP runtime."}
{"event":"details","time":1567501650,"u":"80","run":"37.47","mem":"110.99","data":"Using max runtime: `45`."}
{"event":"details","time":1567501650,"u":"80","run":"37.47","mem":"110.99","data":"About to read in part contents of part `1` of `1` parts of file `\/home\/chris362\/public_html\/wp-content\/uploads\/2018\/04\/7znlix32kovzz6zzg-768x1024.jpg` to remote location `wp-content\/uploads\/2018\/04\/7znlix32kovzz6zzg-768x1024.jpg` with multipart ID `2~uCuRlYL8eGOzEFrFlh7WPzyGpnIw-PX`."}
{"event":"details","time":1567501650,"u":"80","run":"37.47","mem":"111.17","data":"Beginning upload."}
{"event":"details","time":1567501651,"u":"08","run":"37.75","mem":"111.17","data":"Success sending chunk. Enable full logging for upload result details."}
{"event":"details","time":1567501651,"u":"08","run":"37.75","mem":"111.17","data":"Uploaded size this burst: `166 KB`, Start time: `1567526850.8024`. Finish time: `1567526851.0841`. Elapsed: `0.28165411949158`. Speed: `589 KB`\/sec."}
{"event":"details","time":1567501651,"u":"08","run":"37.75","mem":"111.17","data":"About to load fileoptions data."}
{"event":"details","time":1567501651,"u":"08","run":"37.75","mem":"111.17","data":"Fileoptions instance #10."}
{"event":"details","time":1567501651,"u":"08","run":"37.75","mem":"111.17","data":"Created fileoptions lock file `send-live_0c074e33aac1fe8386d96acfb37769c1-dtc1ke.txt.lock` with ID: 5d6e8fc314a5a7.91694117."}
{"event":"details","time":1567501651,"u":"08","run":"37.75","mem":"111.17","data":"Fileoptions load using 0.01 MB of memory."}
{"event":"details","time":1567501651,"u":"08","run":"37.75","mem":"111.17","data":"Fileoptions data loaded."}
{"event":"details","time":1567501651,"u":"08","run":"37.75","mem":"111.17","data":"Getting etags and notifying of multipart upload completion."}
{"event":"details","time":1567501651,"u":"27","run":"37.93","mem":"111.18","data":"Server notified of multipart completion."}
{"event":"details","time":1567501651,"u":"27","run":"37.93","mem":"111.18","data":"No more parts left for this multipart upload. Clearing multipart instance variables."}
{"event":"details","time":1567501651,"u":"27","run":"37.93","mem":"111.18","data":"Upload speed average of all chunks: `589 KB`."}
{"event":"details","time":1567501651,"u":"27","run":"37.94","mem":"111.18","data":"Fileoptions `send-live_0c074e33aac1fe8386d96acfb37769c1-dtc1ke.txt` saved. 3100 bytes written."}
{"event":"details","time":1567501651,"u":"27","run":"37.94","mem":"110.98","data":"Saving catalog that file `\/wp-content\/uploads\/2018\/04\/7znlix32kovzz6zzg-768x1024.jpg` has been backed up."}
{"event":"details","time":1567501651,"u":"60","run":"38.27","mem":"110.98","data":"Fileoptions `catalog-u8r9rcxub343zmq.txt` saved (Live mode). 15493229 bytes written."}
{"event":"details","time":1567501651,"u":"61","run":"38.28","mem":"110.99","data":"Fileoptions `state-u8r9rcxub343zmq.txt` saved. 4160 bytes written."}
{"event":"details","time":1567501651,"u":"61","run":"38.28","mem":"110.98","data":"Completed send function. Success."}
{"event":"details","time":1567501651,"u":"61","run":"38.28","mem":"110.98","data":"About to load fileoptions data."}
{"event":"details","time":1567501651,"u":"61","run":"38.28","mem":"110.98","data":"Fileoptions instance #16."}
{"event":"details","time":1567501651,"u":"61","run":"38.28","mem":"110.98","data":"Created fileoptions lock file `send-live_0c074e33aac1fe8386d96acfb37769c1-dtc1ke.txt.lock` with ID: 5d6e8fc39580f0.84306237."}
{"event":"details","time":1567501651,"u":"61","run":"38.28","mem":"110.99","data":"Fileoptions load using 0.01 MB of memory."}
{"event":"details","time":1567501651,"u":"61","run":"38.28","mem":"110.99","data":"Fileoptions data loaded."}
{"event":"details","time":1567501651,"u":"61","run":"38.28","mem":"110.99","data":"Post-send deletion not enabled."}
{"event":"details","time":1567501651,"u":"61","run":"38.28","mem":"110.99","data":"Ending send() function pass."}
