{"event":"details","time":1567726018,"u":"19","run":"31.30","mem":"111.11","data":"----- Initiating master send function for BackupBuddy v8.4.18.0."}
{"event":"details","time":1567726018,"u":"19","run":"31.30","mem":"111.11","data":"Basename file: `8ugksrpz50ids57zg-1-177x142.jpg`. Post-send deletion: "}
{"event":"details","time":1567726018,"u":"19","run":"31.30","mem":"111.12","data":"Created fileoptions lock file `send-live_55da8ebbfcdf7bd838f183bbde7e3ccc-zsxau0.txt.lock` with ID: 5d71fc322f6b03.99746783."}
{"event":"details","time":1567726018,"u":"19","run":"31.30","mem":"111.11","data":"Fileoptions load using 0 MB of memory."}
{"event":"details","time":1567726018,"u":"19","run":"31.30","mem":"111.12","data":"Fileoptions `send-live_55da8ebbfcdf7bd838f183bbde7e3ccc-zsxau0.txt` saved. 2828 bytes written."}
{"event":"details","time":1567726018,"u":"19","run":"31.30","mem":"111.11","data":"Initializing destination."}
{"event":"details","time":1567726018,"u":"19","run":"31.30","mem":"111.11","data":"Loading destination init file `\/home\/chris362\/public_html\/wp-content\/plugins\/backupbuddy\/destinations\/live\/init.php`."}
{"event":"details","time":1567726018,"u":"19","run":"31.30","mem":"111.11","data":"Destination init loaded."}
{"event":"details","time":1567726018,"u":"19","run":"31.30","mem":"111.11","data":"Initialized `live` destination."}
{"event":"details","time":1567726018,"u":"19","run":"31.30","mem":"111.11","data":"Applying destination-specific defaults."}
{"event":"details","time":1567726018,"u":"19","run":"31.30","mem":"111.12","data":"Applying global destination defaults."}
{"event":"details","time":1567726018,"u":"19","run":"31.30","mem":"111.12","data":"Calling destination-specific send method `pb_backupbuddy_destination_live::send`."}
{"event":"details","time":1567726018,"u":"19","run":"31.30","mem":"111.12","data":"Starting S32 send()."}
{"event":"details","time":1567726018,"u":"19","run":"31.30","mem":"111.13","data":"File size of `9 KB`."}
{"event":"details","time":1567726018,"u":"19","run":"31.30","mem":"111.13","data":"Initiating multipart transfer."}
{"event":"details","time":1567726018,"u":"30","run":"31.41","mem":"111.13","data":"Initiated multipart upload with ID `2~tKkUcwJ4jBaM-qAZ8aeY00ktuGjBArM`."}
{"event":"details","time":1567726018,"u":"30","run":"31.41","mem":"111.14","data":"Multipart initiated; passing over to send first chunk this run. Burst size: `10 MB`."}
{"event":"details","time":1567726018,"u":"30","run":"31.41","mem":"111.13","data":"Max time not set in settings so detecting server max PHP runtime."}
{"event":"details","time":1567726018,"u":"30","run":"31.41","mem":"111.13","data":"Using max runtime: `45`."}
{"event":"details","time":1567726018,"u":"30","run":"31.41","mem":"111.13","data":"About to read in part contents of part `1` of `1` parts of file `\/home\/chris362\/public_html\/wp-content\/uploads\/2018\/04\/8ugksrpz50ids57zg-1-177x142.jpg` to remote location `wp-content\/uploads\/2018\/04\/8ugksrpz50ids57zg-1-177x142.jpg` with multipart ID `2~tKkUcwJ4jBaM-qAZ8aeY00ktuGjBArM`."}
{"event":"details","time":1567726018,"u":"30","run":"31.41","mem":"111.15","data":"Beginning upload."}
{"event":"error","time":1567726068,"u":"43","run":"81.54","mem":"111.24","data":"Error #3897923: Unable to upload file part for multipart upload of ID `2~tKkUcwJ4jBaM-qAZ8aeY00ktuGjBArM`. Details: `Aws\\S3\\Exception\\S3Exception: AWS Error Code: , Status Code: 504, AWS Request ID: , AWS Error Type: server, AWS Error Message: , User-Agent: aws-sdk-php2\/2.8.10 Guzzle\/3.9.3 curl\/7.59.0 PHP\/7.0.33`."}
{"event":"error","time":1567726068,"u":"43","run":"81.54","mem":"111.13","data":"Error #8239823: One or more errors were encountered attempting to send. See log above for more information such as specific error numbers or the following details. `Details: Array\n(\n    [0] => Error #3897923: Unable to upload file part for multipart upload of ID `2~tKkUcwJ4jBaM-qAZ8aeY00ktuGjBArM`. Details: `Aws\\S3\\Exception\\S3Exception: AWS Error Code: , Status Code: 504, AWS Request ID: , AWS Error Type: server, AWS Error Message: , User-Agent: aws-sdk-php2\/2.8.10 Guzzle\/3.9.3 curl\/7.59.0 PHP\/7.0.33`.\n)\n`"}
{"event":"details","time":1567726068,"u":"43","run":"81.54","mem":"111.13","data":"Fileoptions instance #45."}
{"event":"details","time":1567726068,"u":"43","run":"81.54","mem":"111.13","data":"Created fileoptions lock file `send-live_55da8ebbfcdf7bd838f183bbde7e3ccc-zsxau0.txt.lock` with ID: 5d71fc64698755.50085825."}
{"event":"details","time":1567726068,"u":"43","run":"81.54","mem":"111.14","data":"Fileoptions load using 0.01 MB of memory."}
{"event":"details","time":1567726068,"u":"43","run":"81.54","mem":"111.15","data":"Fileoptions `send-live_55da8ebbfcdf7bd838f183bbde7e3ccc-zsxau0.txt` saved. 3448 bytes written."}
{"event":"details","time":1567726068,"u":"43","run":"81.54","mem":"111.14","data":"Completed send function. Failure. Post-send deletion will be skipped if enabled."}
{"event":"details","time":1567726068,"u":"43","run":"81.54","mem":"111.14","data":"About to load fileoptions data."}
{"event":"details","time":1567726068,"u":"43","run":"81.54","mem":"111.14","data":"Fileoptions instance #16."}
{"event":"details","time":1567726068,"u":"43","run":"81.54","mem":"111.14","data":"Created fileoptions lock file `send-live_55da8ebbfcdf7bd838f183bbde7e3ccc-zsxau0.txt.lock` with ID: 5d71fc6469cc50.30439018."}
{"event":"details","time":1567726068,"u":"43","run":"81.54","mem":"111.15","data":"Fileoptions load using 0.01 MB of memory."}
{"event":"details","time":1567726068,"u":"43","run":"81.54","mem":"111.15","data":"Fileoptions data loaded."}
{"event":"details","time":1567726068,"u":"43","run":"81.54","mem":"111.14","data":"Ending send() function pass."}
