{"event":"details","time":1567988353,"u":"50","run":"31.08","mem":"183.51","data":"----- Initiating master send function for BackupBuddy v8.4.18.0."}
{"event":"details","time":1567988353,"u":"50","run":"31.08","mem":"183.51","data":"Basename file: `ac3s7p6d6786qq1zg-200x271.jpg`. Post-send deletion: "}
{"event":"details","time":1567988353,"u":"50","run":"31.08","mem":"183.51","data":"Created fileoptions lock file `send-live_d3b0eeeedffac345ad4eb2a828f34a4f-5dawca.txt.lock` with ID: 5d75fcf17af014.06583297."}
{"event":"details","time":1567988353,"u":"50","run":"31.08","mem":"183.51","data":"Fileoptions load using 0 MB of memory."}
{"event":"details","time":1567988353,"u":"50","run":"31.08","mem":"183.51","data":"Fileoptions `send-live_d3b0eeeedffac345ad4eb2a828f34a4f-5dawca.txt` saved. 2832 bytes written."}
{"event":"details","time":1567988353,"u":"50","run":"31.08","mem":"183.51","data":"Initializing destination."}
{"event":"details","time":1567988353,"u":"50","run":"31.08","mem":"183.51","data":"Loading destination init file `\/home\/chris362\/public_html\/wp-content\/plugins\/backupbuddy\/destinations\/live\/init.php`."}
{"event":"details","time":1567988353,"u":"51","run":"31.09","mem":"183.51","data":"Destination init loaded."}
{"event":"details","time":1567988353,"u":"51","run":"31.09","mem":"183.51","data":"Initialized `live` destination."}
{"event":"details","time":1567988353,"u":"51","run":"31.09","mem":"183.51","data":"Applying destination-specific defaults."}
{"event":"details","time":1567988353,"u":"51","run":"31.09","mem":"183.51","data":"Applying global destination defaults."}
{"event":"details","time":1567988353,"u":"51","run":"31.09","mem":"183.51","data":"Calling destination-specific send method `pb_backupbuddy_destination_live::send`."}
{"event":"details","time":1567988353,"u":"51","run":"31.09","mem":"183.51","data":"Starting S32 send()."}
{"event":"details","time":1567988353,"u":"51","run":"31.09","mem":"183.52","data":"File size of `10 KB`."}
{"event":"details","time":1567988353,"u":"51","run":"31.09","mem":"183.52","data":"Initiating multipart transfer."}
{"event":"details","time":1567988353,"u":"85","run":"31.43","mem":"183.52","data":"Initiated multipart upload with ID `2~clsyIuupmiJqBuDrU54ocUs0JxtXnlT`."}
{"event":"details","time":1567988353,"u":"85","run":"31.43","mem":"183.53","data":"Multipart initiated; passing over to send first chunk this run. Burst size: `10 MB`."}
{"event":"details","time":1567988353,"u":"85","run":"31.43","mem":"183.52","data":"Max time not set in settings so detecting server max PHP runtime."}
{"event":"details","time":1567988353,"u":"85","run":"31.43","mem":"183.52","data":"Using max runtime: `45`."}
{"event":"details","time":1567988353,"u":"85","run":"31.43","mem":"183.52","data":"About to read in part contents of part `1` of `1` parts of file `\/home\/chris362\/public_html\/wp-content\/uploads\/2018\/04\/ac3s7p6d6786qq1zg-200x271.jpg` to remote location `wp-content\/uploads\/2018\/04\/ac3s7p6d6786qq1zg-200x271.jpg` with multipart ID `2~clsyIuupmiJqBuDrU54ocUs0JxtXnlT`."}
{"event":"details","time":1567988353,"u":"86","run":"31.43","mem":"183.54","data":"Beginning upload."}
{"event":"error","time":1567988403,"u":"96","run":"81.54","mem":"183.63","data":"Error #3897923: Unable to upload file part for multipart upload of ID `2~clsyIuupmiJqBuDrU54ocUs0JxtXnlT`. Details: `Aws\\S3\\Exception\\S3Exception: AWS Error Code: , Status Code: 504, AWS Request ID: , AWS Error Type: server, AWS Error Message: , User-Agent: aws-sdk-php2\/2.8.10 Guzzle\/3.9.3 curl\/7.59.0 PHP\/7.0.33`."}
{"event":"error","time":1567988403,"u":"96","run":"81.54","mem":"183.52","data":"Error #8239823: One or more errors were encountered attempting to send. See log above for more information such as specific error numbers or the following details. `Details: Array\n(\n    [0] => Error #3897923: Unable to upload file part for multipart upload of ID `2~clsyIuupmiJqBuDrU54ocUs0JxtXnlT`. Details: `Aws\\S3\\Exception\\S3Exception: AWS Error Code: , Status Code: 504, AWS Request ID: , AWS Error Type: server, AWS Error Message: , User-Agent: aws-sdk-php2\/2.8.10 Guzzle\/3.9.3 curl\/7.59.0 PHP\/7.0.33`.\n)\n`"}
{"event":"details","time":1567988403,"u":"96","run":"81.54","mem":"183.52","data":"Fileoptions instance #45."}
{"event":"details","time":1567988403,"u":"96","run":"81.54","mem":"183.52","data":"Created fileoptions lock file `send-live_d3b0eeeedffac345ad4eb2a828f34a4f-5dawca.txt.lock` with ID: 5d75fd23eb8831.47143250."}
{"event":"details","time":1567988403,"u":"96","run":"81.54","mem":"183.53","data":"Fileoptions load using 0.01 MB of memory."}
{"event":"details","time":1567988403,"u":"96","run":"81.54","mem":"183.54","data":"Fileoptions `send-live_d3b0eeeedffac345ad4eb2a828f34a4f-5dawca.txt` saved. 3452 bytes written."}
{"event":"details","time":1567988403,"u":"96","run":"81.54","mem":"183.53","data":"Completed send function. Failure. Post-send deletion will be skipped if enabled."}
{"event":"details","time":1567988403,"u":"96","run":"81.54","mem":"183.53","data":"About to load fileoptions data."}
{"event":"details","time":1567988403,"u":"96","run":"81.54","mem":"183.53","data":"Fileoptions instance #16."}
{"event":"details","time":1567988403,"u":"96","run":"81.54","mem":"183.53","data":"Created fileoptions lock file `send-live_d3b0eeeedffac345ad4eb2a828f34a4f-5dawca.txt.lock` with ID: 5d75fd23ebf7e4.82012064."}
{"event":"details","time":1567988403,"u":"96","run":"81.54","mem":"183.54","data":"Fileoptions load using 0.01 MB of memory."}
{"event":"details","time":1567988403,"u":"96","run":"81.54","mem":"183.54","data":"Fileoptions data loaded."}
{"event":"details","time":1567988403,"u":"96","run":"81.54","mem":"183.53","data":"Ending send() function pass."}
