{"event":"details","time":1567864342,"u":"46","run":"19.07","mem":"104.96","data":"----- Initiating master send function for BackupBuddy v8.4.18.0."}
{"event":"details","time":1567864342,"u":"46","run":"19.07","mem":"104.96","data":"Basename file: `DSC_1130.jpg`. Post-send deletion: "}
{"event":"details","time":1567864342,"u":"46","run":"19.07","mem":"104.96","data":"Created fileoptions lock file `send-live_8229dadf100e056dce4ab49f59349501-7bhnwa.txt.lock` with ID: 5d741886716e18.42260417."}
{"event":"details","time":1567864342,"u":"46","run":"19.07","mem":"104.96","data":"Fileoptions load using 0 MB of memory."}
{"event":"details","time":1567864342,"u":"46","run":"19.07","mem":"104.97","data":"Fileoptions `send-live_8229dadf100e056dce4ab49f59349501-7bhnwa.txt` saved. 2832 bytes written."}
{"event":"details","time":1567864342,"u":"46","run":"19.07","mem":"104.96","data":"Initializing destination."}
{"event":"details","time":1567864342,"u":"46","run":"19.07","mem":"104.96","data":"Loading destination init file `\/home\/chris362\/public_html\/wp-content\/plugins\/backupbuddy\/destinations\/live\/init.php`."}
{"event":"details","time":1567864342,"u":"46","run":"19.07","mem":"104.96","data":"Destination init loaded."}
{"event":"details","time":1567864342,"u":"46","run":"19.07","mem":"104.96","data":"Initialized `live` destination."}
{"event":"details","time":1567864342,"u":"46","run":"19.07","mem":"104.96","data":"Applying destination-specific defaults."}
{"event":"details","time":1567864342,"u":"46","run":"19.07","mem":"104.96","data":"Applying global destination defaults."}
{"event":"details","time":1567864342,"u":"46","run":"19.07","mem":"104.96","data":"Calling destination-specific send method `pb_backupbuddy_destination_live::send`."}
{"event":"details","time":1567864342,"u":"46","run":"19.07","mem":"104.97","data":"Starting S32 send()."}
{"event":"details","time":1567864342,"u":"47","run":"19.08","mem":"104.99","data":"Using bundled cacert.pem file based on destination settings."}
{"event":"details","time":1567864342,"u":"47","run":"19.08","mem":"105.26","data":"Guzzle client cainfo: `\/home\/chris362\/public_html\/wp-content\/plugins\/backupbuddy\/destinations\/_s3lib2\/Guzzle\/Http\/Resources\/cacert.pem`. capath: `n\/a`."}
{"event":"details","time":1567864342,"u":"48","run":"19.09","mem":"105.32","data":"File size of `9.3 MB`."}
{"event":"details","time":1567864342,"u":"48","run":"19.09","mem":"105.32","data":"Initiating multipart transfer."}
{"event":"details","time":1567864342,"u":"66","run":"19.27","mem":"105.74","data":"Initiated multipart upload with ID `2~XyTj1bR_80YtF1kfRrOaqciRMExyIwx`."}
{"event":"details","time":1567864342,"u":"66","run":"19.27","mem":"105.75","data":"Multipart initiated; passing over to send first chunk this run. Burst size: `10 MB`."}
{"event":"details","time":1567864342,"u":"66","run":"19.27","mem":"105.74","data":"Max time not set in settings so detecting server max PHP runtime."}
{"event":"details","time":1567864342,"u":"66","run":"19.27","mem":"105.74","data":"Using max runtime: `45`."}
{"event":"details","time":1567864342,"u":"66","run":"19.27","mem":"105.74","data":"About to read in part contents of part `1` of `1` parts of file `\/home\/chris362\/public_html\/wp-content\/uploads\/2018\/04\/DSC_1130.jpg` to remote location `wp-content\/uploads\/2018\/04\/DSC_1130.jpg` with multipart ID `2~XyTj1bR_80YtF1kfRrOaqciRMExyIwx`."}
{"event":"details","time":1567864342,"u":"70","run":"19.31","mem":"115.05","data":"Beginning upload."}
