{"event":"details","time":1568096814,"u":"39","run":"29.26","mem":"111.57","data":"----- Initiating master send function for BackupBuddy v8.4.18.0."}
{"event":"details","time":1568096814,"u":"39","run":"29.26","mem":"111.57","data":"Basename file: `amytcxj25dj8vuszg-700x441.jpg`. Post-send deletion: "}
{"event":"details","time":1568096814,"u":"39","run":"29.26","mem":"111.57","data":"Created fileoptions lock file `send-live_e9910f5d3f13117597bff2f2f294e59f-tbx6q9.txt.lock` with ID: 5d77a49e617860.17952365."}
{"event":"details","time":1568096814,"u":"39","run":"29.26","mem":"111.57","data":"Fileoptions load using 0 MB of memory."}
{"event":"details","time":1568096814,"u":"39","run":"29.26","mem":"111.58","data":"Fileoptions `send-live_e9910f5d3f13117597bff2f2f294e59f-tbx6q9.txt` saved. 2832 bytes written."}
{"event":"details","time":1568096814,"u":"39","run":"29.26","mem":"111.57","data":"Initializing destination."}
{"event":"details","time":1568096814,"u":"40","run":"29.26","mem":"111.57","data":"Loading destination init file `\/home\/chris362\/public_html\/wp-content\/plugins\/backupbuddy\/destinations\/live\/init.php`."}
{"event":"details","time":1568096814,"u":"40","run":"29.26","mem":"111.57","data":"Destination init loaded."}
{"event":"details","time":1568096814,"u":"40","run":"29.26","mem":"111.57","data":"Initialized `live` destination."}
{"event":"details","time":1568096814,"u":"40","run":"29.26","mem":"111.57","data":"Applying destination-specific defaults."}
{"event":"details","time":1568096814,"u":"40","run":"29.26","mem":"111.58","data":"Applying global destination defaults."}
{"event":"details","time":1568096814,"u":"40","run":"29.26","mem":"111.58","data":"Calling destination-specific send method `pb_backupbuddy_destination_live::send`."}
{"event":"details","time":1568096814,"u":"40","run":"29.26","mem":"111.58","data":"Starting S32 send()."}
{"event":"details","time":1568096814,"u":"40","run":"29.26","mem":"111.59","data":"File size of `66 KB`."}
{"event":"details","time":1568096814,"u":"40","run":"29.26","mem":"111.59","data":"Initiating multipart transfer."}
{"event":"details","time":1568096814,"u":"49","run":"29.35","mem":"111.59","data":"Initiated multipart upload with ID `2~0NbKoCEfyXz7DOguoZob_PzjE5wYKSL`."}
{"event":"details","time":1568096814,"u":"49","run":"29.35","mem":"111.60","data":"Multipart initiated; passing over to send first chunk this run. Burst size: `10 MB`."}
{"event":"details","time":1568096814,"u":"49","run":"29.35","mem":"111.59","data":"Max time not set in settings so detecting server max PHP runtime."}
{"event":"details","time":1568096814,"u":"49","run":"29.35","mem":"111.59","data":"Using max runtime: `45`."}
{"event":"details","time":1568096814,"u":"49","run":"29.36","mem":"111.59","data":"About to read in part contents of part `1` of `1` parts of file `\/home\/chris362\/public_html\/wp-content\/uploads\/2018\/04\/amytcxj25dj8vuszg-700x441.jpg` to remote location `wp-content\/uploads\/2018\/04\/amytcxj25dj8vuszg-700x441.jpg` with multipart ID `2~0NbKoCEfyXz7DOguoZob_PzjE5wYKSL`."}
{"event":"details","time":1568096814,"u":"49","run":"29.36","mem":"111.67","data":"Beginning upload."}
{"event":"details","time":1568096814,"u":"88","run":"29.74","mem":"111.67","data":"Success sending chunk. Enable full logging for upload result details."}
{"event":"details","time":1568096814,"u":"88","run":"29.74","mem":"111.67","data":"Uploaded size this burst: `66 KB`, Start time: `1568122014.496`. Finish time: `1568122014.8823`. Elapsed: `0.38629198074341`. Speed: `172 KB`\/sec."}
{"event":"details","time":1568096814,"u":"88","run":"29.74","mem":"111.67","data":"About to load fileoptions data."}
{"event":"details","time":1568096814,"u":"88","run":"29.74","mem":"111.67","data":"Fileoptions instance #10."}
{"event":"details","time":1568096814,"u":"88","run":"29.74","mem":"111.67","data":"Created fileoptions lock file `send-live_e9910f5d3f13117597bff2f2f294e59f-tbx6q9.txt.lock` with ID: 5d77a49ed787b3.58219832."}
{"event":"details","time":1568096814,"u":"88","run":"29.74","mem":"111.68","data":"Fileoptions load using 0.01 MB of memory."}
{"event":"details","time":1568096814,"u":"88","run":"29.74","mem":"111.67","data":"Fileoptions data loaded."}
{"event":"details","time":1568096814,"u":"88","run":"29.74","mem":"111.68","data":"Getting etags and notifying of multipart upload completion."}
{"event":"details","time":1568096814,"u":"98","run":"29.84","mem":"111.68","data":"Server notified of multipart completion."}
{"event":"details","time":1568096814,"u":"98","run":"29.84","mem":"111.68","data":"No more parts left for this multipart upload. Clearing multipart instance variables."}
{"event":"details","time":1568096814,"u":"98","run":"29.84","mem":"111.68","data":"Upload speed average of all chunks: `172 KB`."}
{"event":"details","time":1568096814,"u":"98","run":"29.84","mem":"111.68","data":"Fileoptions `send-live_e9910f5d3f13117597bff2f2f294e59f-tbx6q9.txt` saved. 3096 bytes written."}
{"event":"details","time":1568096814,"u":"98","run":"29.84","mem":"111.58","data":"Saving catalog that file `\/wp-content\/uploads\/2018\/04\/amytcxj25dj8vuszg-700x441.jpg` has been backed up."}
{"event":"details","time":1568096815,"u":"33","run":"30.19","mem":"111.58","data":"Fileoptions `catalog-u8r9rcxub343zmq.txt` saved (Live mode). 15510719 bytes written."}
{"event":"details","time":1568096815,"u":"34","run":"30.20","mem":"111.59","data":"Fileoptions `state-u8r9rcxub343zmq.txt` saved. 4156 bytes written."}
{"event":"details","time":1568096815,"u":"34","run":"30.20","mem":"111.58","data":"Completed send function. Success."}
{"event":"details","time":1568096815,"u":"34","run":"30.20","mem":"111.58","data":"About to load fileoptions data."}
{"event":"details","time":1568096815,"u":"34","run":"30.20","mem":"111.58","data":"Fileoptions instance #16."}
{"event":"details","time":1568096815,"u":"34","run":"30.20","mem":"111.58","data":"Created fileoptions lock file `send-live_e9910f5d3f13117597bff2f2f294e59f-tbx6q9.txt.lock` with ID: 5d77a49f53d291.36832471."}
{"event":"details","time":1568096815,"u":"34","run":"30.20","mem":"111.59","data":"Fileoptions load using 0.01 MB of memory."}
{"event":"details","time":1568096815,"u":"34","run":"30.20","mem":"111.58","data":"Fileoptions data loaded."}
{"event":"details","time":1568096815,"u":"34","run":"30.20","mem":"111.58","data":"Post-send deletion not enabled."}
{"event":"details","time":1568096815,"u":"34","run":"30.20","mem":"111.58","data":"Ending send() function pass."}
