{"event":"details","time":1568352454,"u":"19","run":"36.48","mem":"111.82","data":"----- Initiating master send function for BackupBuddy v8.4.18.0."}
{"event":"details","time":1568352454,"u":"19","run":"36.48","mem":"111.82","data":"Basename file: `b378tn5d74c2j1kzg-760x1024.jpg`. Post-send deletion: "}
{"event":"details","time":1568352454,"u":"19","run":"36.48","mem":"111.82","data":"Created fileoptions lock file `send-live_ef7ffb278b3bd2bd83d80d464217694b-5r5ibe.txt.lock` with ID: 5d7b8b3630b763.33734823."}
{"event":"details","time":1568352454,"u":"19","run":"36.48","mem":"111.82","data":"Fileoptions load using 0 MB of memory."}
{"event":"details","time":1568352454,"u":"20","run":"36.48","mem":"111.82","data":"Fileoptions `send-live_ef7ffb278b3bd2bd83d80d464217694b-5r5ibe.txt` saved. 2828 bytes written."}
{"event":"details","time":1568352454,"u":"20","run":"36.48","mem":"111.82","data":"Initializing destination."}
{"event":"details","time":1568352454,"u":"20","run":"36.48","mem":"111.82","data":"Loading destination init file `\/home\/chris362\/public_html\/wp-content\/plugins\/backupbuddy\/destinations\/live\/init.php`."}
{"event":"details","time":1568352454,"u":"20","run":"36.48","mem":"111.82","data":"Destination init loaded."}
{"event":"details","time":1568352454,"u":"20","run":"36.48","mem":"111.82","data":"Initialized `live` destination."}
{"event":"details","time":1568352454,"u":"20","run":"36.48","mem":"111.82","data":"Applying destination-specific defaults."}
{"event":"details","time":1568352454,"u":"20","run":"36.48","mem":"111.82","data":"Applying global destination defaults."}
{"event":"details","time":1568352454,"u":"20","run":"36.48","mem":"111.82","data":"Calling destination-specific send method `pb_backupbuddy_destination_live::send`."}
{"event":"details","time":1568352454,"u":"20","run":"36.48","mem":"111.82","data":"Starting S32 send()."}
{"event":"details","time":1568352454,"u":"20","run":"36.48","mem":"111.83","data":"File size of `135 KB`."}
{"event":"details","time":1568352454,"u":"20","run":"36.48","mem":"111.83","data":"Initiating multipart transfer."}
{"event":"details","time":1568352454,"u":"35","run":"36.63","mem":"111.83","data":"Initiated multipart upload with ID `2~wFXlA6pCDp7r85JXo6suSqExpyRo7LS`."}
{"event":"details","time":1568352454,"u":"35","run":"36.63","mem":"111.84","data":"Multipart initiated; passing over to send first chunk this run. Burst size: `10 MB`."}
{"event":"details","time":1568352454,"u":"35","run":"36.63","mem":"111.83","data":"Max time not set in settings so detecting server max PHP runtime."}
{"event":"details","time":1568352454,"u":"35","run":"36.63","mem":"111.83","data":"Using max runtime: `45`."}
{"event":"details","time":1568352454,"u":"35","run":"36.63","mem":"111.83","data":"About to read in part contents of part `1` of `1` parts of file `\/home\/chris362\/public_html\/wp-content\/uploads\/2018\/04\/b378tn5d74c2j1kzg-760x1024.jpg` to remote location `wp-content\/uploads\/2018\/04\/b378tn5d74c2j1kzg-760x1024.jpg` with multipart ID `2~wFXlA6pCDp7r85JXo6suSqExpyRo7LS`."}
{"event":"details","time":1568352454,"u":"35","run":"36.64","mem":"111.98","data":"Beginning upload."}
{"event":"details","time":1568352454,"u":"64","run":"36.92","mem":"111.98","data":"Success sending chunk. Enable full logging for upload result details."}
{"event":"details","time":1568352454,"u":"64","run":"36.92","mem":"111.98","data":"Uploaded size this burst: `135 KB`, Start time: `1568377654.3534`. Finish time: `1568377654.6445`. Elapsed: `0.29110908508301`. Speed: `464 KB`\/sec."}
{"event":"details","time":1568352454,"u":"64","run":"36.92","mem":"111.98","data":"About to load fileoptions data."}
{"event":"details","time":1568352454,"u":"64","run":"36.92","mem":"111.98","data":"Fileoptions instance #10."}
{"event":"details","time":1568352454,"u":"64","run":"36.92","mem":"111.98","data":"Created fileoptions lock file `send-live_ef7ffb278b3bd2bd83d80d464217694b-5r5ibe.txt.lock` with ID: 5d7b8b369d6db7.23464452."}
{"event":"details","time":1568352454,"u":"64","run":"36.92","mem":"111.98","data":"Fileoptions load using 0.01 MB of memory."}
{"event":"details","time":1568352454,"u":"64","run":"36.92","mem":"111.98","data":"Fileoptions data loaded."}
{"event":"details","time":1568352454,"u":"64","run":"36.92","mem":"111.98","data":"Getting etags and notifying of multipart upload completion."}
{"event":"details","time":1568352454,"u":"88","run":"37.16","mem":"111.99","data":"Server notified of multipart completion."}
{"event":"details","time":1568352454,"u":"88","run":"37.16","mem":"111.99","data":"No more parts left for this multipart upload. Clearing multipart instance variables."}
{"event":"details","time":1568352454,"u":"88","run":"37.16","mem":"111.99","data":"Upload speed average of all chunks: `464 KB`."}
{"event":"details","time":1568352454,"u":"88","run":"37.16","mem":"111.99","data":"Fileoptions `send-live_ef7ffb278b3bd2bd83d80d464217694b-5r5ibe.txt` saved. 3096 bytes written."}
{"event":"details","time":1568352454,"u":"88","run":"37.16","mem":"111.82","data":"Saving catalog that file `\/wp-content\/uploads\/2018\/04\/b378tn5d74c2j1kzg-760x1024.jpg` has been backed up."}
{"event":"details","time":1568352455,"u":"22","run":"37.50","mem":"111.82","data":"Fileoptions `catalog-u8r9rcxub343zmq.txt` saved (Live mode). 15513497 bytes written."}
{"event":"details","time":1568352455,"u":"23","run":"37.51","mem":"111.84","data":"Fileoptions `state-u8r9rcxub343zmq.txt` saved. 4148 bytes written."}
{"event":"details","time":1568352455,"u":"23","run":"37.51","mem":"111.82","data":"Completed send function. Success."}
{"event":"details","time":1568352455,"u":"23","run":"37.51","mem":"111.82","data":"About to load fileoptions data."}
{"event":"details","time":1568352455,"u":"23","run":"37.51","mem":"111.82","data":"Fileoptions instance #16."}
{"event":"details","time":1568352455,"u":"23","run":"37.51","mem":"111.82","data":"Created fileoptions lock file `send-live_ef7ffb278b3bd2bd83d80d464217694b-5r5ibe.txt.lock` with ID: 5d7b8b3738a2f9.46610143."}
{"event":"details","time":1568352455,"u":"23","run":"37.51","mem":"111.83","data":"Fileoptions load using 0.01 MB of memory."}
{"event":"details","time":1568352455,"u":"23","run":"37.51","mem":"111.83","data":"Fileoptions data loaded."}
{"event":"details","time":1568352455,"u":"23","run":"37.51","mem":"111.83","data":"Post-send deletion not enabled."}
{"event":"details","time":1568352455,"u":"23","run":"37.51","mem":"111.83","data":"Ending send() function pass."}
