{"event":"details","time":1568779754,"u":"50","run":"35.69","mem":"102.05","data":"----- Initiating master send function for BackupBuddy v8.4.19.0."}
{"event":"details","time":1568779754,"u":"50","run":"35.70","mem":"102.05","data":"Basename file: `DSC_2624-800x533.jpg`. Post-send deletion: "}
{"event":"details","time":1568779754,"u":"50","run":"35.70","mem":"102.05","data":"Created fileoptions lock file `send-live_92379daf4da26dd874b5810b01e61d88-vu3zf7.txt.lock` with ID: 5d82105a7a2e41.33566196."}
{"event":"details","time":1568779754,"u":"50","run":"35.70","mem":"102.05","data":"Fileoptions load using 0 MB of memory."}
{"event":"details","time":1568779754,"u":"50","run":"35.70","mem":"102.06","data":"Fileoptions `send-live_92379daf4da26dd874b5810b01e61d88-vu3zf7.txt` saved. 2832 bytes written."}
{"event":"details","time":1568779754,"u":"50","run":"35.70","mem":"102.05","data":"Initializing destination."}
{"event":"details","time":1568779754,"u":"50","run":"35.70","mem":"102.05","data":"Loading destination init file `\/home\/chris362\/public_html\/wp-content\/plugins\/backupbuddy\/destinations\/live\/init.php`."}
{"event":"details","time":1568779754,"u":"50","run":"35.70","mem":"102.05","data":"Destination init loaded."}
{"event":"details","time":1568779754,"u":"50","run":"35.70","mem":"102.05","data":"Initialized `live` destination."}
{"event":"details","time":1568779754,"u":"50","run":"35.70","mem":"102.05","data":"Applying destination-specific defaults."}
{"event":"details","time":1568779754,"u":"50","run":"35.70","mem":"102.05","data":"Applying global destination defaults."}
{"event":"details","time":1568779754,"u":"50","run":"35.70","mem":"102.05","data":"Calling destination-specific send method `pb_backupbuddy_destination_live::send`."}
{"event":"details","time":1568779754,"u":"50","run":"35.70","mem":"102.06","data":"Starting S32 send()."}
{"event":"details","time":1568779754,"u":"50","run":"35.70","mem":"102.07","data":"File size of `242 KB`."}
{"event":"details","time":1568779754,"u":"50","run":"35.70","mem":"102.07","data":"Initiating multipart transfer."}
{"event":"details","time":1568779754,"u":"63","run":"35.82","mem":"102.07","data":"Initiated multipart upload with ID `2~R2CZzi4K5cVRU0P1GJ8_CcMpH2getjX`."}
{"event":"details","time":1568779754,"u":"63","run":"35.82","mem":"102.08","data":"Multipart initiated; passing over to send first chunk this run. Burst size: `10 MB`."}
{"event":"details","time":1568779754,"u":"63","run":"35.83","mem":"102.07","data":"Max time not set in settings so detecting server max PHP runtime."}
{"event":"details","time":1568779754,"u":"63","run":"35.83","mem":"102.07","data":"Using max runtime: `45`."}
{"event":"details","time":1568779754,"u":"63","run":"35.83","mem":"102.07","data":"About to read in part contents of part `1` of `1` parts of file `\/home\/chris362\/public_html\/wp-content\/uploads\/2018\/09\/DSC_2624-800x533.jpg` to remote location `wp-content\/uploads\/2018\/09\/DSC_2624-800x533.jpg` with multipart ID `2~R2CZzi4K5cVRU0P1GJ8_CcMpH2getjX`."}
{"event":"details","time":1568779754,"u":"63","run":"35.83","mem":"102.32","data":"Beginning upload."}
{"event":"details","time":1568779754,"u":"97","run":"36.17","mem":"102.32","data":"Success sending chunk. Enable full logging for upload result details."}
{"event":"details","time":1568779754,"u":"97","run":"36.17","mem":"102.32","data":"Uploaded size this burst: `242 KB`, Start time: `1568804954.6303`. Finish time: `1568804954.9713`. Elapsed: `0.34100103378296`. Speed: `709 KB`\/sec."}
{"event":"details","time":1568779754,"u":"97","run":"36.17","mem":"102.32","data":"About to load fileoptions data."}
{"event":"details","time":1568779754,"u":"97","run":"36.17","mem":"102.32","data":"Fileoptions instance #10."}
{"event":"details","time":1568779754,"u":"97","run":"36.17","mem":"102.32","data":"Created fileoptions lock file `send-live_92379daf4da26dd874b5810b01e61d88-vu3zf7.txt.lock` with ID: 5d82105aed4084.29023794."}
{"event":"details","time":1568779754,"u":"97","run":"36.17","mem":"102.32","data":"Fileoptions load using 0.01 MB of memory."}
{"event":"details","time":1568779754,"u":"97","run":"36.17","mem":"102.32","data":"Fileoptions data loaded."}
{"event":"details","time":1568779754,"u":"97","run":"36.17","mem":"102.32","data":"Getting etags and notifying of multipart upload completion."}
{"event":"details","time":1568779755,"u":"15","run":"36.35","mem":"102.33","data":"Server notified of multipart completion."}
{"event":"details","time":1568779755,"u":"15","run":"36.35","mem":"102.33","data":"No more parts left for this multipart upload. Clearing multipart instance variables."}
{"event":"details","time":1568779755,"u":"15","run":"36.35","mem":"102.33","data":"Upload speed average of all chunks: `709 KB`."}
{"event":"details","time":1568779755,"u":"15","run":"36.35","mem":"102.33","data":"Fileoptions `send-live_92379daf4da26dd874b5810b01e61d88-vu3zf7.txt` saved. 3100 bytes written."}
{"event":"details","time":1568779755,"u":"15","run":"36.35","mem":"102.06","data":"Saving catalog that file `\/wp-content\/uploads\/2018\/09\/DSC_2624-800x533.jpg` has been backed up."}
{"event":"details","time":1568779755,"u":"59","run":"36.79","mem":"102.06","data":"Fileoptions `catalog-u8r9rcxub343zmq.txt` saved (Live mode). 13899443 bytes written."}
{"event":"details","time":1568779755,"u":"60","run":"36.80","mem":"102.07","data":"Fileoptions `state-u8r9rcxub343zmq.txt` saved. 4188 bytes written."}
{"event":"details","time":1568779755,"u":"60","run":"36.80","mem":"102.05","data":"Completed send function. Success."}
{"event":"details","time":1568779755,"u":"60","run":"36.80","mem":"102.05","data":"About to load fileoptions data."}
{"event":"details","time":1568779755,"u":"60","run":"36.80","mem":"102.05","data":"Fileoptions instance #16."}
{"event":"details","time":1568779755,"u":"60","run":"36.80","mem":"102.06","data":"Created fileoptions lock file `send-live_92379daf4da26dd874b5810b01e61d88-vu3zf7.txt.lock` with ID: 5d82105b934894.02976392."}
{"event":"details","time":1568779755,"u":"60","run":"36.80","mem":"102.06","data":"Fileoptions load using 0.01 MB of memory."}
{"event":"details","time":1568779755,"u":"60","run":"36.80","mem":"102.06","data":"Fileoptions data loaded."}
{"event":"details","time":1568779755,"u":"60","run":"36.80","mem":"102.06","data":"Post-send deletion not enabled."}
{"event":"details","time":1568779755,"u":"60","run":"36.80","mem":"102.06","data":"Ending send() function pass."}
