{"event":"details","time":1567330099,"u":"21","run":"25.91","mem":"105.24","data":"----- Initiating master send function for BackupBuddy v8.4.18.0."}
{"event":"details","time":1567330099,"u":"21","run":"25.91","mem":"105.24","data":"Basename file: `7jbiivwf5paj6gjzg-940x400.jpg`. Post-send deletion: "}
{"event":"details","time":1567330099,"u":"21","run":"25.91","mem":"105.24","data":"Created fileoptions lock file `send-live_d88d56c007cf04a510affa29394ce6e9-5e0bia.txt.lock` with ID: 5d6bf1a3344123.05210983."}
{"event":"details","time":1567330099,"u":"21","run":"25.91","mem":"105.24","data":"Fileoptions load using 0 MB of memory."}
{"event":"details","time":1567330099,"u":"21","run":"25.91","mem":"105.25","data":"Fileoptions `send-live_d88d56c007cf04a510affa29394ce6e9-5e0bia.txt` saved. 2824 bytes written."}
{"event":"details","time":1567330099,"u":"21","run":"25.91","mem":"105.24","data":"Initializing destination."}
{"event":"details","time":1567330099,"u":"21","run":"25.91","mem":"105.24","data":"Loading destination init file `\/home\/chris362\/public_html\/wp-content\/plugins\/backupbuddy\/destinations\/live\/init.php`."}
{"event":"details","time":1567330099,"u":"21","run":"25.91","mem":"105.24","data":"Destination init loaded."}
{"event":"details","time":1567330099,"u":"21","run":"25.91","mem":"105.24","data":"Initialized `live` destination."}
{"event":"details","time":1567330099,"u":"21","run":"25.91","mem":"105.24","data":"Applying destination-specific defaults."}
{"event":"details","time":1567330099,"u":"21","run":"25.91","mem":"105.24","data":"Applying global destination defaults."}
{"event":"details","time":1567330099,"u":"21","run":"25.91","mem":"105.24","data":"Calling destination-specific send method `pb_backupbuddy_destination_live::send`."}
{"event":"details","time":1567330099,"u":"21","run":"25.91","mem":"105.25","data":"Starting S32 send()."}
{"event":"details","time":1567330099,"u":"21","run":"25.91","mem":"105.25","data":"File size of `117 KB`."}
{"event":"details","time":1567330099,"u":"21","run":"25.91","mem":"105.25","data":"Initiating multipart transfer."}
{"event":"details","time":1567330099,"u":"35","run":"26.04","mem":"105.26","data":"Initiated multipart upload with ID `2~hjT5rZwTIZWd0deEP0WDh9tGAyhZ3xx`."}
{"event":"details","time":1567330099,"u":"35","run":"26.04","mem":"105.26","data":"Multipart initiated; passing over to send first chunk this run. Burst size: `10 MB`."}
{"event":"details","time":1567330099,"u":"35","run":"26.04","mem":"105.26","data":"Max time not set in settings so detecting server max PHP runtime."}
{"event":"details","time":1567330099,"u":"35","run":"26.04","mem":"105.26","data":"Using max runtime: `45`."}
{"event":"details","time":1567330099,"u":"35","run":"26.04","mem":"105.26","data":"About to read in part contents of part `1` of `1` parts of file `\/home\/chris362\/public_html\/wp-content\/uploads\/2018\/04\/7jbiivwf5paj6gjzg-940x400.jpg` to remote location `wp-content\/uploads\/2018\/04\/7jbiivwf5paj6gjzg-940x400.jpg` with multipart ID `2~hjT5rZwTIZWd0deEP0WDh9tGAyhZ3xx`."}
{"event":"details","time":1567330099,"u":"35","run":"26.05","mem":"105.38","data":"Beginning upload."}
{"event":"details","time":1567330099,"u":"50","run":"26.19","mem":"105.38","data":"Success sending chunk. Enable full logging for upload result details."}
{"event":"details","time":1567330099,"u":"50","run":"26.19","mem":"105.38","data":"Uploaded size this burst: `117 KB`, Start time: `1567355299.3508`. Finish time: `1567355299.5011`. Elapsed: `0.15028786659241`. Speed: `777 KB`\/sec."}
{"event":"details","time":1567330099,"u":"50","run":"26.19","mem":"105.38","data":"About to load fileoptions data."}
{"event":"details","time":1567330099,"u":"50","run":"26.20","mem":"105.38","data":"Fileoptions instance #10."}
{"event":"details","time":1567330099,"u":"50","run":"26.20","mem":"105.38","data":"Created fileoptions lock file `send-live_d88d56c007cf04a510affa29394ce6e9-5e0bia.txt.lock` with ID: 5d6bf1a37a6dc4.04710984."}
{"event":"details","time":1567330099,"u":"50","run":"26.20","mem":"105.39","data":"Fileoptions load using 0.01 MB of memory."}
{"event":"details","time":1567330099,"u":"50","run":"26.20","mem":"105.39","data":"Fileoptions data loaded."}
{"event":"details","time":1567330099,"u":"50","run":"26.20","mem":"105.39","data":"Getting etags and notifying of multipart upload completion."}
{"event":"details","time":1567330099,"u":"69","run":"26.39","mem":"105.39","data":"Server notified of multipart completion."}
{"event":"details","time":1567330099,"u":"69","run":"26.39","mem":"105.39","data":"No more parts left for this multipart upload. Clearing multipart instance variables."}
{"event":"details","time":1567330099,"u":"69","run":"26.39","mem":"105.39","data":"Upload speed average of all chunks: `777 KB`."}
{"event":"details","time":1567330099,"u":"69","run":"26.39","mem":"105.40","data":"Fileoptions `send-live_d88d56c007cf04a510affa29394ce6e9-5e0bia.txt` saved. 3092 bytes written."}
{"event":"details","time":1567330099,"u":"69","run":"26.39","mem":"105.25","data":"Saving catalog that file `\/wp-content\/uploads\/2018\/04\/7jbiivwf5paj6gjzg-940x400.jpg` has been backed up."}
{"event":"details","time":1567330100,"u":"04","run":"26.74","mem":"105.25","data":"Fileoptions `catalog-u8r9rcxub343zmq.txt` saved (Live mode). 15491681 bytes written."}
{"event":"details","time":1567330100,"u":"05","run":"26.75","mem":"105.26","data":"Fileoptions `state-u8r9rcxub343zmq.txt` saved. 4164 bytes written."}
{"event":"details","time":1567330100,"u":"05","run":"26.75","mem":"105.24","data":"Completed send function. Success."}
{"event":"details","time":1567330100,"u":"05","run":"26.75","mem":"105.24","data":"About to load fileoptions data."}
{"event":"details","time":1567330100,"u":"05","run":"26.75","mem":"105.24","data":"Fileoptions instance #16."}
{"event":"details","time":1567330100,"u":"05","run":"26.75","mem":"105.24","data":"Created fileoptions lock file `send-live_d88d56c007cf04a510affa29394ce6e9-5e0bia.txt.lock` with ID: 5d6bf1a40df846.71312652."}
{"event":"details","time":1567330100,"u":"05","run":"26.75","mem":"105.25","data":"Fileoptions load using 0.01 MB of memory."}
{"event":"details","time":1567330100,"u":"05","run":"26.75","mem":"105.25","data":"Fileoptions data loaded."}
{"event":"details","time":1567330100,"u":"05","run":"26.75","mem":"105.25","data":"Post-send deletion not enabled."}
{"event":"details","time":1567330100,"u":"05","run":"26.75","mem":"105.25","data":"Ending send() function pass."}
